{
  "source": "https://www.photos-public-domain.com/2015/01/02/dimpled-ice-on-glass-texture/",
  "license": "CC0 Public Domain",
  "author": "photos-public-domain.com",
  "licensetext": "This work is dedicated to the Public Domain. For non-US use it is also placed under a Creative Commons CC0 designation. If you do use the photo, please consider giving credit and linking back to the site. This isn't required, but it's a very good way to support our efforts. Just something like, \"Photo courtesy photos-public-domain.com\".",
  "transform": [
    {
      "contrast": "0.8"
    }
  ]
}