{
  "source": "https://www.publicdomainpictures.net/en/view-image.php?image=120907&picture=garden-hedge-leaves-background",
  "license": "CC0 Public Domain",
  "author": "Alex Borland",
  "licensetext": "Alex Borland has released this “Garden Hedge Background” image under Public Domain license. It means that you can use and modify it for your personal and commercial projects. If you intend to use an image you find here for commercial use, please be aware that some photos do require a model or a property release. Pictures featuring products should be used with care.",
  "transform": [
    {
      "blackandwhite": "yes"
    },
    {
      "contrast": "1.0"
    }
  ]
}