{
  "source": "https://www.publicdomainpictures.net/en/view-image.php?image=26031&picture=light-wood-texture",
  "license": "CC0 Public Domain",
  "author": "Petr Kratochvil",
  "licensetext": "Petr Kratochvil has released this “Light Wood Texture” image under Public Domain license. It means that you can use and modify it for your personal and commercial projects. If you intend to use an image you find here for commercial use, please be aware that some photos do require a model or a property release. Pictures featuring products should be used with care.",
  "transform": [
    {
      "blackandwhite": "yes"
    },
    {
      "contrast": "8.0"
    },
    {
      "rotate": "90"
    }
  ]
}